Taylor Headland - Relative abundance of Wedge-tailed Eagles in South Australia
…
# habitat variables: landcover and elevation
habitat <- read_csv(here::here("data/WTE_Analysis/WTE_environmental-variables_checklists.csv"))

# zero-filled ebird data combined with habitat data
checklists <- read_csv(here::here("data/WTE_Analysis/eBird_WedgeTailedEagle_zf_SA.csv")) %>% 
  inner_join(habitat, by = "checklist_id") %>% 
  #subset to breeding season months
  dplyr::mutate(month = month(observation_date)) %>% 
  dplyr::filter(month %in% c(6, 7, 8, 9, 10, 11, 12))

checklists

# A tibble: 29,386 × 52
   checklist_id observer_id scientific_name observation_count species_observed
   <chr>        <chr>       <chr>                       <dbl> <lgl>           
 1 S64372429    obs1458647  Aquila audax                    0 FALSE           
 2 S61315220    obs1458647  Aquila audax                    0 FALSE           
 3 S61317706    obs1458647  Aquila audax                    0 FALSE           
 4 S61694299    obs1458647  Aquila audax                    0 FALSE           
 5 S61784799    obs1458647  Aquila audax                    0 FALSE           
 6 S71743238    obs162908   Aquila audax                    0 FALSE           
 7 S145166100   obs107603   Aquila audax                    0 FALSE           
 8 S145839592   obs107603   Aquila audax                    0 FALSE           
 9 S145839867   obs107603   Aquila audax                    0 FALSE           
10 S63019801    obs107603   Aquila audax                    0 FALSE           
# ℹ 29,376 more rows
# ℹ 47 more variables: country <chr>, state <chr>, locality <chr>,
#   locality_id <chr>, longitude <dbl>, latitude <dbl>, protocol_type <chr>,
#   all_species_reported <lgl>, observation_date <date>, year <dbl>,
#   day_of_year <dbl>, hours_of_day <dbl>, effort_hours <dbl>,
#   effort_distance_km <dbl>, effort_speed_kmph <dbl>, number_observers <dbl>,
#   elevation_mean <dbl>, elevation_sd <dbl>, ed_c00_water <dbl>, …
…
Predictions

pred_grid_eff <- pred_grid %>% 
  mutate(observation_date = ymd("2022-09-15"),
         year = year(observation_date),
         day_of_year = yday(observation_date),
         hours_of_day = 10.02,
         effort_hours = 2,
         effort_distance_km = 1,
         effort_speed_kmph = 0.5,
         number_observers = 1)

pred_grid_eff

# A tibble: 109,160 × 41
   cell_id       x        y elevation_mean elevation_sd ed_c00_water
     <dbl>   <dbl>    <dbl>          <dbl>        <dbl>        <dbl>
 1     128 780490. 2662520.           570.         3.10            0
 2     129 783490. 2662520.           566.         5.28            0
 3     130 786490. 2662520.           556.         4.67            0
 4     131 789490. 2662520.           553.         6.96            0
 5     132 792490. 2662520.           554.         9.18            0
 6     133 795490. 2662520.           552.         8.86            0
 7     134 798490. 2662520.           547.         8.27            0
 8     135 801490. 2662520.           544.         7.06            0
 9     136 804490. 2662520.           551.         6.41            0
10     137 807490. 2662520.           553.         5.21            0
# ℹ 109,150 more rows
# ℹ 35 more variables: pland_c00_water <dbl>,
#   ed_c01_evergreen_needleleaf <dbl>, pland_c01_evergreen_needleleaf <dbl>,
#   ed_c02_evergreen_broadleaf <dbl>, pland_c02_evergreen_broadleaf <dbl>,
#   ed_c04_deciduous_broadleaf <dbl>, pland_c04_deciduous_broadleaf <dbl>,
#   ed_c05_mixed_forest <dbl>, pland_c05_mixed_forest <dbl>,
#   ed_c06_closed_shrubland <dbl>, pland_c06_closed_shrubland <dbl>, …
…
# add estimates to prediction grid
predictions <- bind_cols(pred_grid_eff,
                         in_range = pred_binary,
                         encounter_rate = pred_er_cal,
                         count = pred_count) %>% 
  select(cell_id, x, y, in_range, encounter_rate, count) %>% 
  mutate(encounter_rate = pmin(pmax(encounter_rate, 0), 1))

predictions

# A tibble: 109,160 × 6
   cell_id       x        y in_range encounter_rate count
     <dbl>   <dbl>    <dbl>    <int>          <dbl> <dbl>
 1     128 780490. 2662520.        0          0.207 0.657
 2     129 783490. 2662520.        0          0.214 0.660
 3     130 786490. 2662520.        0          0.210 0.662
 4     131 789490. 2662520.        0          0.215 0.677
 5     132 792490. 2662520.        0          0.235 0.675
 6     133 795490. 2662520.        0          0.227 0.687
 7     134 798490. 2662520.        0          0.221 0.714
 8     135 801490. 2662520.        0          0.217 0.683
 9     136 804490. 2662520.        0          0.215 0.654
10     137 807490. 2662520.        0          0.212 0.660
# ℹ 109,150 more rows
…
